^C:\USERS\SAMANTHA\SOURCE\REPOS\CHILDES-GUI\STATSITEM\DEBUG_STATS\MULTIPLESTATSITEMINSTANCE.XDC|C:\USERS\SAMANTHA\SOURCE\REPOS\CHILDES-GUI\STATSITEM\DEBUG_STATS\STATSITEM.XDC|C:\USERS\SAMANTHA\SOURCE\REPOS\CHILDES-GUI\STATSITEM\DEBUG_STATS\STATSITEMINSTANCE.XDC|C:\USERS\SAMANTHA\SOURCE\REPOS\CHILDES-GUI\STATSITEM\DEBUG_STATS\STATSITEMMANAGER.XDC
C:\WINDOWS\MICROSOFT.NET\FRAMEWORK64\V2.0.50727\MSCORWKS.DLL
C:\WINDOWS\MICROSOFT.NET\FRAMEWORK64\V4.0.30319\CLR.DLL
C:\PROGRAM FILES (X86)\MICROSOFT VISUAL STUDIO\2017\ENTERPRISE\VC\TOOLS\MSVC\14.10.25017\BIN\HOSTX86\X86\XDCMAKE.EXE.CONFIG
C:\WINDOWS\MICROSOFT.NET\FRAMEWORK64\V4.0.30319\CONFIG\MACHINE.CONFIG
C:\WINDOWS\GLOBALIZATION\SORTING\SORTDEFAULT.NLS
C:\WINDOWS\ASSEMBLY\NATIVEIMAGES_V4.0.30319_64\MSCORLIB\3510F5CD72F18CB547980B3BA114890A\MSCORLIB.NI.DLL.AUX
C:\PROGRAM FILES (X86)\MICROSOFT VISUAL STUDIO\2017\ENTERPRISE\VC\TOOLS\MSVC\14.10.25017\BIN\HOSTX86\X86\XDCMAKE.EXE
C:\WINDOWS\ASSEMBLY\PUBPOL36.DAT
C:\WINDOWS\ASSEMBLY\NATIVEIMAGES_V4.0.30319_64\SYSTEM.XML\648BDC4B21938A5ED3308D0141232D97\SYSTEM.XML.NI.DLL.AUX
C:\WINDOWS\ASSEMBLY\NATIVEIMAGES_V4.0.30319_64\SYSTEM\985516CA34E596D5A5AE3F08E3D2ED64\SYSTEM.NI.DLL.AUX
C:\WINDOWS\MICROSOFT.NET\FRAMEWORK64\V4.0.30319\SORTDEFAULT.NLP
C:\USERS\SAMANTHA\SOURCE\REPOS\CHILDES-GUI\STATSITEM\DEBUG_STATS\STATSITEM.XDC
C:\USERS\SAMANTHA\SOURCE\REPOS\CHILDES-GUI\STATSITEM\DEBUG_STATS\MULTIPLESTATSITEMINSTANCE.XDC
C:\USERS\SAMANTHA\SOURCE\REPOS\CHILDES-GUI\STATSITEM\DEBUG_STATS\STATSITEMMANAGER.XDC
C:\USERS\SAMANTHA\SOURCE\REPOS\CHILDES-GUI\STATSITEM\DEBUG_STATS\STATSITEMINSTANCE.XDC
