^C:\USERS\SAMANTHA\SOURCE\REPOS\CHILDES-GUI\TESTINGPROJECT\STDAFX.CPP
/c /ZI /nologo /W3 /WX- /diagnostics:classic /Od /Oy- /D WIN32 /D _DEBUG /D _WINDLL /D _UNICODE /D UNICODE /Gm /EHsc /RTC1 /MDd /GS /fp:precise /Zc:wchar_t /Zc:forScope /Zc:inline /Yc"stdafx.h" /Fp"DEBUG_STATS\TESTINGPROJECT.PCH" /Fo"DEBUG_STATS\\" /Fd"DEBUG_STATS\VC141.PDB" /Gd /TP /analyze- /FC C:\USERS\SAMANTHA\SOURCE\REPOS\CHILDES-GUI\TESTINGPROJECT\STDAFX.CPP
^C:\USERS\SAMANTHA\SOURCE\REPOS\CHILDES-GUI\TESTINGPROJECT\CMULTIPLESTATSITEMINSTANCETEST.CPP
/c /ZI /nologo /W3 /WX- /diagnostics:classic /Od /Oy- /D WIN32 /D _DEBUG /D _WINDLL /D _UNICODE /D UNICODE /Gm /EHsc /RTC1 /MDd /GS /fp:precise /Zc:wchar_t /Zc:forScope /Zc:inline /Yu"stdafx.h" /Fp"DEBUG_STATS\TESTINGPROJECT.PCH" /Fo"DEBUG_STATS\\" /Fd"DEBUG_STATS\VC141.PDB" /Gd /TP /analyze- /FC C:\USERS\SAMANTHA\SOURCE\REPOS\CHILDES-GUI\TESTINGPROJECT\CMULTIPLESTATSITEMINSTANCETEST.CPP
^C:\USERS\SAMANTHA\SOURCE\REPOS\CHILDES-GUI\TESTINGPROJECT\CSTATSITEMINSTANCETEST.CPP
/c /ZI /nologo /W3 /WX- /diagnostics:classic /Od /Oy- /D WIN32 /D _DEBUG /D _WINDLL /D _UNICODE /D UNICODE /Gm /EHsc /RTC1 /MDd /GS /fp:precise /Zc:wchar_t /Zc:forScope /Zc:inline /Yu"stdafx.h" /Fp"DEBUG_STATS\TESTINGPROJECT.PCH" /Fo"DEBUG_STATS\\" /Fd"DEBUG_STATS\VC141.PDB" /Gd /TP /analyze- /FC C:\USERS\SAMANTHA\SOURCE\REPOS\CHILDES-GUI\TESTINGPROJECT\CSTATSITEMINSTANCETEST.CPP
^C:\USERS\SAMANTHA\SOURCE\REPOS\CHILDES-GUI\TESTINGPROJECT\CSTATSMANAGERTEST.CPP
/c /ZI /nologo /W3 /WX- /diagnostics:classic /Od /Oy- /D WIN32 /D _DEBUG /D _WINDLL /D _UNICODE /D UNICODE /Gm /EHsc /RTC1 /MDd /GS /fp:precise /Zc:wchar_t /Zc:forScope /Zc:inline /Yu"stdafx.h" /Fp"DEBUG_STATS\TESTINGPROJECT.PCH" /Fo"DEBUG_STATS\\" /Fd"DEBUG_STATS\VC141.PDB" /Gd /TP /analyze- /FC C:\USERS\SAMANTHA\SOURCE\REPOS\CHILDES-GUI\TESTINGPROJECT\CSTATSMANAGERTEST.CPP
^C:\USERS\SAMANTHA\SOURCE\REPOS\CHILDES-GUI\TESTINGPROJECT\CSTATSITEMTEST.CPP
/c /ZI /nologo /W3 /WX- /diagnostics:classic /Od /Oy- /D WIN32 /D _DEBUG /D _WINDLL /D _UNICODE /D UNICODE /Gm /EHsc /RTC1 /MDd /GS /fp:precise /Zc:wchar_t /Zc:forScope /Zc:inline /Yu"stdafx.h" /Fp"DEBUG_STATS\TESTINGPROJECT.PCH" /Fo"DEBUG_STATS\\" /Fd"DEBUG_STATS\VC141.PDB" /Gd /TP /analyze- /FC C:\USERS\SAMANTHA\SOURCE\REPOS\CHILDES-GUI\TESTINGPROJECT\CSTATSITEMTEST.CPP
