^C:\USERS\SAMANTHA\SOURCE\REPOS\CHILDES-GUI\CHILDESCLASSLIBRARY\STDAFX.CPP
C:\USERS\SAMANTHA\SOURCE\REPOS\CHILDES-GUI\CHILDESCLASSLIBRARY\RELEASE_DEBUGGABLE\CHILDESCLASSLIBRARY.PCH
C:\USERS\SAMANTHA\SOURCE\REPOS\CHILDES-GUI\CHILDESCLASSLIBRARY\RELEASE_DEBUGGABLE\VC141.PDB
C:\USERS\SAMANTHA\SOURCE\REPOS\CHILDES-GUI\CHILDESCLASSLIBRARY\RELEASE_DEBUGGABLE\STDAFX.OBJ
^C:\USERS\SAMANTHA\SOURCE\REPOS\CHILDES-GUI\CHILDESCLASSLIBRARY\ASSEMBLYINFO.CPP|C:\USERS\SAMANTHA\SOURCE\REPOS\CHILDES-GUI\CHILDESCLASSLIBRARY\CHILDESCLASSLIBRARY.CPP|C:\USERS\SAMANTHA\SOURCE\REPOS\CHILDES-GUI\CHILDESCLASSLIBRARY\CHILDESTAGLINEINTERFACE.CPP|C:\USERS\SAMANTHA\SOURCE\REPOS\CHILDES-GUI\CHILDESCLASSLIBRARY\CHILDESTAGOPTIONINTERFACE.CPP|C:\USERS\SAMANTHA\SOURCE\REPOS\CHILDES-GUI\CHILDESCLASSLIBRARY\CHILDESWORDUNITINTERFACE.CPP
C:\USERS\SAMANTHA\SOURCE\REPOS\CHILDES-GUI\CHILDESCLASSLIBRARY\RELEASE_DEBUGGABLE\VC141.PDB
C:\USERS\SAMANTHA\SOURCE\REPOS\CHILDES-GUI\CHILDESCLASSLIBRARY\RELEASE_DEBUGGABLE\CHILDESWORDUNITINTERFACE.OBJ
C:\USERS\SAMANTHA\SOURCE\REPOS\CHILDES-GUI\CHILDESCLASSLIBRARY\RELEASE_DEBUGGABLE\CHILDESTAGOPTIONINTERFACE.OBJ
C:\USERS\SAMANTHA\SOURCE\REPOS\CHILDES-GUI\CHILDESCLASSLIBRARY\RELEASE_DEBUGGABLE\CHILDESTAGLINEINTERFACE.OBJ
C:\USERS\SAMANTHA\SOURCE\REPOS\CHILDES-GUI\CHILDESCLASSLIBRARY\RELEASE_DEBUGGABLE\CHILDESCLASSLIBRARY.OBJ
C:\USERS\SAMANTHA\SOURCE\REPOS\CHILDES-GUI\CHILDESCLASSLIBRARY\RELEASE_DEBUGGABLE\ASSEMBLYINFO.OBJ
^C:\USERS\SAMANTHA\SOURCE\REPOS\CHILDES-GUI\CHILDESCLASSLIBRARY\ASSEMBLYINFO.CPP
C:\USERS\SAMANTHA\SOURCE\REPOS\CHILDES-GUI\CHILDESCLASSLIBRARY\RELEASE_DEBUGGABLE\VC141.PDB
^C:\USERS\SAMANTHA\APPDATA\LOCAL\TEMP\.NETFRAMEWORK,VERSION=V4.6.1.ASSEMBLYATTRIBUTES.CPP
C:\USERS\SAMANTHA\SOURCE\REPOS\CHILDES-GUI\CHILDESCLASSLIBRARY\RELEASE_DEBUGGABLE\VC141.PDB
C:\USERS\SAMANTHA\SOURCE\REPOS\CHILDES-GUI\CHILDESCLASSLIBRARY\RELEASE_DEBUGGABLE\.NETFRAMEWORK,VERSION=V4.6.1.ASSEMBLYATTRIBUTES.OBJ
C:\USERS\SAMANTHA\SOURCE\REPOS\CHILDES-GUI\CHILDESCLASSLIBRARY\RELEASE_DEBUGGABLE\.NETFRAMEWORK,VERSION=V4.6.1.ASSEMBLYATTRIBUTES.ASM
^C:\USERS\SAMANTHA\SOURCE\REPOS\CHILDES-GUI\CHILDESCLASSLIBRARY\CHILDESCLASSLIBRARY.CPP|C:\USERS\SAMANTHA\SOURCE\REPOS\CHILDES-GUI\CHILDESCLASSLIBRARY\CHILDESTAGLINEINTERFACE.CPP|C:\USERS\SAMANTHA\SOURCE\REPOS\CHILDES-GUI\CHILDESCLASSLIBRARY\CHILDESTAGOPTIONINTERFACE.CPP|C:\USERS\SAMANTHA\SOURCE\REPOS\CHILDES-GUI\CHILDESCLASSLIBRARY\CHILDESWORDUNITINTERFACE.CPP
C:\USERS\SAMANTHA\SOURCE\REPOS\CHILDES-GUI\CHILDESCLASSLIBRARY\RELEASE_DEBUGGABLE\VC141.PDB
C:\USERS\SAMANTHA\SOURCE\REPOS\CHILDES-GUI\CHILDESCLASSLIBRARY\RELEASE_DEBUGGABLE\CHILDESWORDUNITINTERFACE.OBJ
C:\USERS\SAMANTHA\SOURCE\REPOS\CHILDES-GUI\CHILDESCLASSLIBRARY\RELEASE_DEBUGGABLE\CHILDESTAGOPTIONINTERFACE.OBJ
C:\USERS\SAMANTHA\SOURCE\REPOS\CHILDES-GUI\CHILDESCLASSLIBRARY\RELEASE_DEBUGGABLE\CHILDESTAGLINEINTERFACE.OBJ
C:\USERS\SAMANTHA\SOURCE\REPOS\CHILDES-GUI\CHILDESCLASSLIBRARY\RELEASE_DEBUGGABLE\CHILDESCLASSLIBRARY.OBJ
^C:\USERS\SAMANTHA\SOURCE\REPOS\CHILDES-GUI\CHILDESCLASSLIBRARY\CHILDESCLASSLIBRARY.CPP
C:\USERS\SAMANTHA\SOURCE\REPOS\CHILDES-GUI\CHILDESCLASSLIBRARY\RELEASE_DEBUGGABLE\VC141.PDB
^C:\USERS\SAMANTHA\SOURCE\REPOS\CHILDES-GUI\CHILDESCLASSLIBRARY\CHILDESTAGLINEINTERFACE.CPP
C:\USERS\SAMANTHA\SOURCE\REPOS\CHILDES-GUI\CHILDESCLASSLIBRARY\RELEASE_DEBUGGABLE\VC141.PDB
^C:\USERS\SAMANTHA\SOURCE\REPOS\CHILDES-GUI\CHILDESCLASSLIBRARY\CHILDESTAGOPTIONINTERFACE.CPP
C:\USERS\SAMANTHA\SOURCE\REPOS\CHILDES-GUI\CHILDESCLASSLIBRARY\RELEASE_DEBUGGABLE\VC141.PDB
^C:\USERS\SAMANTHA\SOURCE\REPOS\CHILDES-GUI\CHILDESCLASSLIBRARY\CHILDESWORDUNITINTERFACE.CPP
C:\USERS\SAMANTHA\SOURCE\REPOS\CHILDES-GUI\CHILDESCLASSLIBRARY\RELEASE_DEBUGGABLE\VC141.PDB
