^C:\USERS\SAMANTHA\SOURCE\REPOS\CHILDES-GUI\RELEASE_STATS\CHILDESFILEREADER.LIB|C:\USERS\SAMANTHA\SOURCE\REPOS\CHILDES-GUI\RELEASE_STATS\STATSITEM.LIB|C:\USERS\SAMANTHA\SOURCE\REPOS\CHILDES-GUI\RELEASE_STATS\TAGLIB.LIB|C:\USERS\SAMANTHA\SOURCE\REPOS\CHILDES-GUI\TESTINGPROJECT\RELEASE_STATS\CMULTIPLESTATSITEMINSTANCETEST.OBJ|C:\USERS\SAMANTHA\SOURCE\REPOS\CHILDES-GUI\TESTINGPROJECT\RELEASE_STATS\CSTATSITEMINSTANCETEST.OBJ|C:\USERS\SAMANTHA\SOURCE\REPOS\CHILDES-GUI\TESTINGPROJECT\RELEASE_STATS\CSTATSITEMTEST.OBJ|C:\USERS\SAMANTHA\SOURCE\REPOS\CHILDES-GUI\TESTINGPROJECT\RELEASE_STATS\CSTATSMANAGERTEST.OBJ|C:\USERS\SAMANTHA\SOURCE\REPOS\CHILDES-GUI\TESTINGPROJECT\RELEASE_STATS\STDAFX.OBJ
C:\WINDOWS\GLOBALIZATION\SORTING\SORTDEFAULT.NLS
C:\USERS\SAMANTHA\SOURCE\REPOS\CHILDES-GUI\RELEASE_STATS\CHILDESFILEREADER.LIB
C:\USERS\SAMANTHA\SOURCE\REPOS\CHILDES-GUI\RELEASE_STATS\STATSITEM.LIB
C:\USERS\SAMANTHA\SOURCE\REPOS\CHILDES-GUI\RELEASE_STATS\TAGLIB.LIB
C:\PROGRAM FILES (X86)\WINDOWS KITS\10\LIB\10.0.15063.0\UM\X86\KERNEL32.LIB
C:\PROGRAM FILES (X86)\WINDOWS KITS\10\LIB\10.0.15063.0\UM\X86\USER32.LIB
C:\PROGRAM FILES (X86)\WINDOWS KITS\10\LIB\10.0.15063.0\UM\X86\GDI32.LIB
C:\PROGRAM FILES (X86)\WINDOWS KITS\10\LIB\10.0.15063.0\UM\X86\WINSPOOL.LIB
C:\PROGRAM FILES (X86)\WINDOWS KITS\10\LIB\10.0.15063.0\UM\X86\COMDLG32.LIB
C:\PROGRAM FILES (X86)\WINDOWS KITS\10\LIB\10.0.15063.0\UM\X86\ADVAPI32.LIB
C:\PROGRAM FILES (X86)\WINDOWS KITS\10\LIB\10.0.15063.0\UM\X86\SHELL32.LIB
C:\PROGRAM FILES (X86)\WINDOWS KITS\10\LIB\10.0.15063.0\UM\X86\OLE32.LIB
C:\PROGRAM FILES (X86)\WINDOWS KITS\10\LIB\10.0.15063.0\UM\X86\OLEAUT32.LIB
C:\PROGRAM FILES (X86)\WINDOWS KITS\10\LIB\10.0.15063.0\UM\X86\UUID.LIB
C:\PROGRAM FILES (X86)\WINDOWS KITS\10\LIB\10.0.15063.0\UM\X86\ODBC32.LIB
C:\PROGRAM FILES (X86)\WINDOWS KITS\10\LIB\10.0.15063.0\UM\X86\ODBCCP32.LIB
C:\USERS\SAMANTHA\SOURCE\REPOS\CHILDES-GUI\TESTINGPROJECT\RELEASE_STATS\CMULTIPLESTATSITEMINSTANCETEST.OBJ
C:\USERS\SAMANTHA\SOURCE\REPOS\CHILDES-GUI\TESTINGPROJECT\RELEASE_STATS\CSTATSITEMINSTANCETEST.OBJ
C:\USERS\SAMANTHA\SOURCE\REPOS\CHILDES-GUI\TESTINGPROJECT\RELEASE_STATS\CSTATSMANAGERTEST.OBJ
C:\USERS\SAMANTHA\SOURCE\REPOS\CHILDES-GUI\TESTINGPROJECT\RELEASE_STATS\STDAFX.OBJ
C:\USERS\SAMANTHA\SOURCE\REPOS\CHILDES-GUI\TESTINGPROJECT\RELEASE_STATS\CSTATSITEMTEST.OBJ
C:\PROGRAM FILES (X86)\MICROSOFT VISUAL STUDIO\2017\ENTERPRISE\VC\TOOLS\MSVC\14.10.25017\BIN\HOSTX86\X86\1033\LINKUI.DLL
C:\PROGRAM FILES (X86)\MICROSOFT VISUAL STUDIO\2017\ENTERPRISE\VC\TOOLS\MSVC\14.10.25017\BIN\HOSTX86\X86\C2.DLL
C:\PROGRAM FILES (X86)\MICROSOFT VISUAL STUDIO\2017\ENTERPRISE\VC\TOOLS\MSVC\14.10.25017\LIB\X86\MSVCPRT.LIB
C:\PROGRAM FILES (X86)\MICROSOFT VISUAL STUDIO\2017\ENTERPRISE\VC\AUXILIARY\VS\UNITTEST\LIB\X86\MICROSOFT.VISUALSTUDIO.TESTTOOLS.CPPUNITTESTFRAMEWORK.LIB
C:\PROGRAM FILES (X86)\MICROSOFT VISUAL STUDIO\2017\ENTERPRISE\VC\TOOLS\MSVC\14.10.25017\LIB\X86\MSVCRT.LIB
C:\PROGRAM FILES (X86)\MICROSOFT VISUAL STUDIO\2017\ENTERPRISE\VC\TOOLS\MSVC\14.10.25017\LIB\X86\OLDNAMES.LIB
C:\PROGRAM FILES (X86)\MICROSOFT VISUAL STUDIO\2017\ENTERPRISE\VC\TOOLS\MSVC\14.10.25017\LIB\X86\VCRUNTIME.LIB
C:\PROGRAM FILES (X86)\WINDOWS KITS\10\LIB\10.0.15063.0\UCRT\X86\UCRT.LIB
C:\WINDOWS\SYSTEM32\TZRES.DLL
C:\PROGRAM FILES (X86)\WINDOWS KITS\10\BIN\10.0.15063.0\X86\RC.EXE
C:\PROGRAM FILES (X86)\MICROSOFT VISUAL STUDIO\2017\ENTERPRISE\VC\TOOLS\MSVC\14.10.25017\BIN\HOSTX86\X86\CVTRES.EXE
C:\PROGRAM FILES (X86)\MICROSOFT VISUAL STUDIO\2017\ENTERPRISE\VC\TOOLS\MSVC\14.10.25017\BIN\HOSTX86\X86\MSPDBSRV.EXE
C:\PROGRAM FILES (X86)\MICROSOFT VISUAL STUDIO\2017\ENTERPRISE\VC\TOOLS\MSVC\14.10.25017\BIN\HOSTX86\X86\1033\CLUI.DLL
C:\WINDOWS\SYSTEM32\RSAENH.DLL
