^C:\USERS\SAMANTHA\SOURCE\REPOS\CHILDES-GUI\STATSITEM\MULTIPLESTATSITEMINSTANCE.CPP
/c /Zi /nologo /W3 /WX- /diagnostics:classic /sdl /O2 /Oi /Oy- /GL /D _MBCS /Gm- /EHsc /MD /GS /Gy /fp:precise /Zc:wchar_t /Zc:forScope /Zc:inline /Fo"RELEASE_STATS\\" /Fd"RELEASE_STATS\STATSITEM.PDB" /doc"Release_Stats\\" /Gd /TP /analyze- C:\USERS\SAMANTHA\SOURCE\REPOS\CHILDES-GUI\STATSITEM\MULTIPLESTATSITEMINSTANCE.CPP
^C:\USERS\SAMANTHA\SOURCE\REPOS\CHILDES-GUI\STATSITEM\STATSITEM.CPP
/c /Zi /nologo /W3 /WX- /diagnostics:classic /sdl /O2 /Oi /Oy- /GL /D _MBCS /Gm- /EHsc /MD /GS /Gy /fp:precise /Zc:wchar_t /Zc:forScope /Zc:inline /Fo"RELEASE_STATS\\" /Fd"RELEASE_STATS\STATSITEM.PDB" /doc"Release_Stats\\" /Gd /TP /analyze- C:\USERS\SAMANTHA\SOURCE\REPOS\CHILDES-GUI\STATSITEM\STATSITEM.CPP
^C:\USERS\SAMANTHA\SOURCE\REPOS\CHILDES-GUI\STATSITEM\STATSITEMINSTANCE.CPP
/c /Zi /nologo /W3 /WX- /diagnostics:classic /sdl /O2 /Oi /Oy- /GL /D _MBCS /Gm- /EHsc /MD /GS /Gy /fp:precise /Zc:wchar_t /Zc:forScope /Zc:inline /Fo"RELEASE_STATS\\" /Fd"RELEASE_STATS\STATSITEM.PDB" /doc"Release_Stats\\" /Gd /TP /analyze- C:\USERS\SAMANTHA\SOURCE\REPOS\CHILDES-GUI\STATSITEM\STATSITEMINSTANCE.CPP
^C:\USERS\SAMANTHA\SOURCE\REPOS\CHILDES-GUI\STATSITEM\STATSITEMMANAGER.CPP
/c /Zi /nologo /W3 /WX- /diagnostics:classic /sdl /O2 /Oi /Oy- /GL /D _MBCS /Gm- /EHsc /MD /GS /Gy /fp:precise /Zc:wchar_t /Zc:forScope /Zc:inline /Fo"RELEASE_STATS\\" /Fd"RELEASE_STATS\STATSITEM.PDB" /doc"Release_Stats\\" /Gd /TP /analyze- C:\USERS\SAMANTHA\SOURCE\REPOS\CHILDES-GUI\STATSITEM\STATSITEMMANAGER.CPP
