^C:\USERS\SAMANTHA\SOURCE\REPOS\CHILDES-GUI\TAGLIB\MORPHEMEINSTANCE.CPP|C:\USERS\SAMANTHA\SOURCE\REPOS\CHILDES-GUI\TAGLIB\MORPHEMEWORD.CPP|C:\USERS\SAMANTHA\SOURCE\REPOS\CHILDES-GUI\TAGLIB\MORPHINSTANCEFACTORY.CPP|C:\USERS\SAMANTHA\SOURCE\REPOS\CHILDES-GUI\TAGLIB\TAGINSTANCE.CPP|C:\USERS\SAMANTHA\SOURCE\REPOS\CHILDES-GUI\TAGLIB\TAGOPTION.CPP|C:\USERS\SAMANTHA\SOURCE\REPOS\CHILDES-GUI\TAGLIB\TAGOPTIONSIMPLE.CPP
C:\USERS\SAMANTHA\SOURCE\REPOS\CHILDES-GUI\TAGLIB\RELEASE_STATS\TAGLIB.PDB
C:\USERS\SAMANTHA\SOURCE\REPOS\CHILDES-GUI\TAGLIB\RELEASE_STATS\TAGOPTIONSIMPLE.OBJ
C:\USERS\SAMANTHA\SOURCE\REPOS\CHILDES-GUI\TAGLIB\RELEASE_STATS\TAGOPTION.OBJ
C:\USERS\SAMANTHA\SOURCE\REPOS\CHILDES-GUI\TAGLIB\RELEASE_STATS\TAGINSTANCE.OBJ
C:\USERS\SAMANTHA\SOURCE\REPOS\CHILDES-GUI\TAGLIB\RELEASE_STATS\MORPHINSTANCEFACTORY.OBJ
C:\USERS\SAMANTHA\SOURCE\REPOS\CHILDES-GUI\TAGLIB\RELEASE_STATS\MORPHEMEWORD.OBJ
C:\USERS\SAMANTHA\SOURCE\REPOS\CHILDES-GUI\TAGLIB\RELEASE_STATS\MORPHEMEINSTANCE.OBJ
^C:\USERS\SAMANTHA\SOURCE\REPOS\CHILDES-GUI\TAGLIB\MORPHEMEINSTANCE.CPP
C:\USERS\SAMANTHA\SOURCE\REPOS\CHILDES-GUI\TAGLIB\RELEASE_STATS\TAGLIB.PDB
^C:\USERS\SAMANTHA\SOURCE\REPOS\CHILDES-GUI\TAGLIB\MORPHEMEWORD.CPP
C:\USERS\SAMANTHA\SOURCE\REPOS\CHILDES-GUI\TAGLIB\RELEASE_STATS\TAGLIB.PDB
^C:\USERS\SAMANTHA\SOURCE\REPOS\CHILDES-GUI\TAGLIB\MORPHINSTANCEFACTORY.CPP
C:\USERS\SAMANTHA\SOURCE\REPOS\CHILDES-GUI\TAGLIB\RELEASE_STATS\TAGLIB.PDB
^C:\USERS\SAMANTHA\SOURCE\REPOS\CHILDES-GUI\TAGLIB\TAGINSTANCE.CPP
C:\USERS\SAMANTHA\SOURCE\REPOS\CHILDES-GUI\TAGLIB\RELEASE_STATS\TAGLIB.PDB
^C:\USERS\SAMANTHA\SOURCE\REPOS\CHILDES-GUI\TAGLIB\TAGOPTION.CPP
C:\USERS\SAMANTHA\SOURCE\REPOS\CHILDES-GUI\TAGLIB\RELEASE_STATS\TAGLIB.PDB
^C:\USERS\SAMANTHA\SOURCE\REPOS\CHILDES-GUI\TAGLIB\TAGOPTIONSIMPLE.CPP
C:\USERS\SAMANTHA\SOURCE\REPOS\CHILDES-GUI\TAGLIB\RELEASE_STATS\TAGLIB.PDB
